Fatal Force – nathan alexander, phd
…
Please navigate to the website for the raw code that we’ll bring into R.

We want to bring data directly in from the github repository

This data is from the GitHub for Washington Post[^1]. [^1]: https://github.com/washingtonpost

# import your data using the read.csv command
fatal_raw <- read.csv("https://raw.githubusercontent.com/washingtonpost/data-police-shootings/master/v2/fatal-police-shootings-data.csv")

Task 5: View your data

fatal <- as_tibble(fatal_raw)
fatal

# A tibble: 10,430 × 19
      id date     threat_type flee_status armed_with city  county state latitude
   <int> <chr>    <chr>       <chr>       <chr>      <chr> <chr>  <chr>    <dbl>
 1     3 2015-01… point       not         gun        Shel… Mason  WA        47.2
 2     4 2015-01… point       not         gun        Aloha Washi… OR        45.5
 3     5 2015-01… move        not         unarmed    Wich… Sedgw… KS        37.7
 4     8 2015-01… point       not         replica    San … San F… CA        37.8
 5     9 2015-01… point       not         other      Evans Weld   CO        40.4
 6    11 2015-01… attack      not         gun        Guth… Logan  OK        35.9
 7    13 2015-01… shoot       car         gun        Chan… Maric… AZ        33.3
 8    15 2015-01… point       not         gun        Assa… Saline KS        38.7
 9    16 2015-01… accident    not         unarmed    Burl… Des M… IA        40.8
10    17 2015-01… point       not         replica    Knox… Alleg… PA        40.4
# ℹ 10,420 more rows
# ℹ 10 more variables: longitude <dbl>, location_precision <chr>, name <chr>,
#   age <int>, gender <chr>, race <chr>, race_source <chr>,
#   was_mental_illness_related <chr>, body_camera <chr>, agency_ids <chr>
…
